P2/datos/A0019CH1.CSV

Memory Length,4000,
Trigger Level,1.920E+00,
Source,CH1,
Probe,1X,
Vertical Units,V,
Vertical Scale,2.000E-01,
Vertical Position,-8.000E-03,
Horizontal Units,s,
Horizontal Scale,1.000E-01,
Horizontal Position,0.000E+00,
Horizontal Mode,Roll Mode,
Sampling Period,4.000E-04,
Firmware,V1.07,
Time, ,
Mode,Fast,
Waveform Data,
65,
66,
64,
66,
65,
65,
64,
65,
65,
65,
64,
65,
64,
64,
65,
64,
63,
64,
64,
63,
64,
63,
63,
62,
63,
63,
63,
62,
61,
62,
63,
61,
61,
61,
61,
61,
62,
61,
61,
61,
60,
59,
58,
58,
59,
59,
58,
60,
57,
57,
57,
57,
59,
57,
56,
57,
56,
55,
55,
55,
55,
56,
55,
56,
53,
53,
53,
55,
53,
52,
52,
53,
53,
52,
52,
52,
52,
50,
50,
50,
49,
49,
48,
48,
49,
49,
48,
48,
48,
48,
45,
47,
46,
46,
45,
44,
44,
45,
44,
44,
42,
43,
42,
42,
42,
40,
41,
41,
39,
39,
39,
39,
37,
39,
39,
38,
36,
37,
36,
37,
37,
36,
34,
35,
34,
33,
35,
33,
33,
31,
31,
33,
31,
30,
30,
29,
29,
26,
28,
29,
28,
25,
26,
26,
25,
25,
24,
23,
25,
24,
24,
22,
21,
21,
20,
21,
19,
21,
18,
20,
19,
18,
17,
16,
16,
15,
15,
15,
14,
15,
15,
14,
13,
12,
11,
12,
12,
12,
10,
10,
9,
8,
8,
7,
5,
6,
5,
5,
5,
4,
4,
4,
4,
4,
2,
1,
1,
1,
0,
1,
-1,
-1,
0,
-2,
-4,
-3,
-3,
-5,
-4,
-5,
-5,
-6,
-8,
-5,
-9,
-8,
-8,
-9,
-9,
-10,
-9,
-11,
-10,
-14,
-14,
-13,
-13,
-13,
-14,
-14,
-14,
-14,
-17,
-16,
-17,
-18,
-19,
-18,
-18,
-19,
-20,
-20,
-21,
-21,
-22,
-21,
-22,
-23,
-23,
-24,
-25,
-25,
-24,
-25,
-25,
-27,
-27,
-28,
-27,
-28,
-29,
-28,
-29,
-30,
-30,
-31,
-31,
-32,
-31,
-32,
-32,
-32,
-33,
-35,
-35,
-35,
-35,
-36,
-36,
-37,
-36,
-38,
-39,
-38,
-39,
-39,
-40,
-40,
-40,
-41,
-41,
-42,
-42,
-41,
-43,
-43,
-43,
-44,
-44,
-44,
-45,
-45,
-46,
-47,
-47,
-47,
-47,
-47,
-48,
-48,
-49,
-48,
-47,
-49,
-50,
-51,
-51,
-51,
-49,
-52,
-51,
-53,
-53,
-52,
-52,
-54,
-54,
-54,
-55,
-54,
-55,
-55,
-55,
-55,
-56,
-57,
-56,
-56,
-57,
-56,
-57,
-59,
-58,
-59,
-59,
-59,
-59,
-60,
-58,
-60,
-59,
-60,
-59,
-60,
-62,
-60,
-62,
-60,
-63,
-62,
-63,
-63,
-63,
-63,
-63,
-63,
-63,
-63,
-63,
-63,
-64,
-64,
-64,
-64,
-65,
-65,
-64,
-65,
-65,
-66,
-66,
-66,
-65,
-66,
-67,
-67,
-67,
-67,
-67,
-67,
-66,
-67,
-67,
-67,
-67,
-67,
-67,
-67,
-67,
-68,
-68,
-67,
-68,
-67,
-67,
-69,
-68,
-68,
-68,
-68,
-69,
-69,
-69,
-69,
-69,
-70,
-69,
-69,
-68,
-69,
-68,
-69,
-68,
-69,
-69,
-70,
-69,
-67,
-69,
-71,
-70,
-70,
-68,
-71,
-68,
-71,
-68,
-68,
-69,
-69,
-70,
-69,
-69,
-70,
-68,
-68,
-68,
-70,
-67,
-68,
-68,
-68,
-69,
-68,
-68,
-68,
-68,
-67,
-68,
-68,
-68,
-67,
-67,
-66,
-66,
-67,
-65,
-67,
-65,
-66,
-65,
-65,
-65,
-65,
-65,
-64,
-65,
-64,
-64,
-63,
-64,
-63,
-63,
-63,
-65,
-64,
-63,
-63,
-62,
-61,
-62,
-62,
-61,
-60,
-61,
-61,
-61,
-61,
-60,
-62,
-60,
-59,
-59,
-59,
-59,
-59,
-57,
-59,
-59,
-59,
-57,
-57,
-58,
-56,
-57,
-57,
-55,
-56,
-56,
-55,
-55,
-55,
-54,
-55,
-53,
-53,
-53,
-52,
-53,
-53,
-52,
-51,
-51,
-51,
-49,
-49,
-49,
-50,
-49,
-49,
-48,
-48,
-49,
-48,
-47,
-47,
-46,
-47,
-46,
-44,
-45,
-45,
-46,
-45,
-43,
-43,
-44,
-42,
-43,
-43,
-41,
-41,
-40,
-40,
-39,
-39,
-39,
-39,
-37,
-38,
-38,
-37,
-36,
-36,
-35,
-35,
-34,
-33,
-35,
-33,
-33,
-33,
-31,
-31,
-31,
-31,
-31,
-30,
-29,
-30,
-29,
-28,
-27,
-27,
-27,
-28,
-26,
-26,
-25,
-25,
-25,
-24,
-23,
-23,
-23,
-21,
-21,
-20,
-20,
-21,
-20,
-19,
-19,
-19,
-19,
-18,
-17,
-16,
-17,
-15,
-15,
-15,
-14,
-14,
-13,
-12,
-14,
-12,
-12,
-10,
-10,
-11,
-8,
-9,
-8,
-8,
-7,
-6,
-7,
-6,
-6,
-5,
-5,
-3,
-3,
-3,
-3,
-1,
-1,
-1,
0,
0,
0,
1,
3,
1,
3,
3,
4,
5,
5,
5,
5,
5,
5,
7,
6,
7,
7,
9,
9,
9,
10,
10,
11,
11,
12,
12,
13,
13,
15,
13,
13,
15,
16,
16,
17,
18,
17,
18,
19,
19,
18,
20,
19,
21,
21,
21,
22,
23,
23,
23,
24,
24,
25,
25,
25,
26,
27,
26,
27,
27,
29,
28,
29,
30,
29,
31,
31,
31,
31,
31,
32,
32,
34,
34,
35,
33,
34,
35,
36,
36,
36,
37,
37,
37,
38,
39,
38,
40,
39,
41,
41,
41,
40,
40,
42,
42,
42,
42,
-51,
-51,
-52,
-52,
-55,
-54,
-54,
-55,
-55,
-54,
-56,
-56,
-55,
-57,
-57,
-56,
-57,
-57,
-58,
-57,
-57,
-58,
-57,
-59,
-59,
-59,
-59,
-59,
-60,
-60,
-61,
-61,
-61,
-61,
-61,
-61,
-62,
-61,
-62,
-62,
-62,
-63,
-62,
-63,
-63,
-63,
-63,
-64,
-64,
-63,
-63,
-65,
-64,
-64,
-65,
-65,
-65,
-66,
-65,
-67,
-65,
-65,
-65,
-66,
-67,
-65,
-67,
-67,
-68,
-67,
-65,
-68,
-68,
-68,
-68,
-68,
-67,
-68,
-67,
-67,
-68,
-69,
-70,
-69,
-69,
-69,
-68,
-68,
-68,
-68,
-69,
-69,
-70,
-67,
-68,
-69,
-71,
-69,
-69,
-69,
-69,
-70,
-70,
-69,
-70,
-69,
-70,
-68,
-69,
-70,
-69,
-68,
-70,
-68,
-68,
-69,
-69,
-70,
-68,
-69,
-69,
-68,
-69,
-69,
-69,
-68,
-67,
-67,
-67,
-67,
-68,
-68,
-68,
-68,
-67,
-67,
-67,
-68,
-67,
-67,
-65,
-67,
-67,
-67,
-67,
-67,
-67,
-67,
-65,
-66,
-64,
-64,
-67,
-65,
-64,
-63,
-64,
-63,
-64,
-64,
-64,
-64,
-62,
-65,
-63,
-63,
-63,
-62,
-62,
-62,
-62,
-61,
-63,
-62,
-60,
-60,
-60,
-60,
-60,
-59,
-59,
-59,
-60,
-59,
-58,
-59,
-57,
-58,
-58,
-57,
-57,
-59,
-57,
-56,
-56,
-55,
-55,
-56,
-56,
-55,
-54,
-55,
-54,
-52,
-52,
-53,
-54,
-52,
-52,
-52,
-52,
-51,
-51,
-52,
-50,
-49,
-49,
-48,
-48,
-49,
-47,
-48,
-48,
-48,
-46,
-45,
-47,
-46,
-46,
-45,
-44,
-44,
-44,
-43,
-44,
-43,
-43,
-41,
-42,
-41,
-41,
-40,
-39,
-39,
-39,
-39,
-39,
-38,
-36,
-38,
-36,
-36,
-35,
-36,
-35,
-34,
-33,
-32,
-35,
-33,
-31,
-31,
-32,
-31,
-31,
-31,
-30,
-29,
-30,
-29,
-27,
-27,
-27,
-27,
-25,
-26,
-26,
-24,
-24,
-25,
-23,
-24,
-23,
-23,
-22,
-20,
-21,
-20,
-19,
-20,
-20,
-19,
-17,
-17,
-16,
-17,
-14,
-17,
-15,
-15,
-15,
-14,
-14,
-13,
-13,
-12,
-12,
-11,
-11,
-9,
-9,
-9,
-9,
-7,
-7,
-7,
-7,
-6,
-6,
-6,
-4,
-3,
-5,
-3,
-3,
-1,
0,
-1,
-1,
0,
0,
0,
1,
2,
2,
3,
2,
5,
4,
4,
5,
5,
5,
5,
6,
7,
8,
8,
9,
8,
11,
11,
12,
10,
11,
12,
13,
13,
13,
14,
15,
15,
15,
15,
16,
17,
18,
18,
18,
19,
19,
19,
18,
21,
20,
20,
22,
21,
23,
24,
24,
24,
25,
25,
25,
26,
26,
26,
27,
26,
28,
28,
28,
29,
30,
31,
29,
31,
33,
31,
33,
33,
33,
33,
34,
34,
33,
34,
36,
36,
36,
37,
37,
37,
37,
37,
39,
40,
40,
41,
40,
40,
41,
41,
41,
41,
42,
42,
42,
43,
45,
44,
45,
44,
47,
45,
46,
47,
48,
47,
48,
48,
49,
47,
49,
50,
50,
49,
49,
50,
49,
50,
52,
52,
52,
52,
52,
53,
53,
54,
53,
53,
53,
54,
54,
55,
56,
55,
54,
55,
55,
55,
57,
56,
56,
57,
57,
58,
57,
57,
58,
59,
58,
58,
59,
60,
60,
60,
59,
61,
61,
61,
59,
61,
61,
61,
61,
62,
61,
61,
63,
63,
61,
63,
63,
63,
63,
64,
63,
63,
64,
65,
65,
63,
63,
65,
65,
65,
64,
65,
64,
65,
65,
64,
65,
65,
66,
67,
65,
65,
65,
66,
67,
67,
66,
67,
67,
66,
67,
65,
66,
65,
65,
66,
65,
65,
68,
66,
65,
67,
66,
67,
67,
65,
66,
66,
66,
66,
67,
65,
65,
67,
66,
65,
65,
67,
67,
65,
65,
66,
65,
65,
65,
64,
64,
66,
66,
66,
65,
65,
64,
65,
64,
64,
64,
63,
64,
64,
63,
64,
64,
63,
64,
63,
63,
64,
63,
63,
63,
62,
63,
62,
61,
61,
61,
60,
61,
61,
61,
60,
61,
61,
59,
61,
58,
60,
60,
59,
60,
57,
57,
58,
59,
57,
57,
57,
57,
56,
56,
57,
56,
55,
55,
55,
55,
54,
55,
54,
53,
54,
53,
53,
52,
53,
53,
52,
52,
51,
50,
50,
50,
49,
51,
49,
49,
49,
48,
49,
48,
48,
47,
47,
47,
48,
45,
46,
45,
45,
45,
44,
45,
44,
45,
44,
43,
43,
41,
41,
41,
39,
39,
40,
39,
41,
38,
38,
39,
39,
37,
36,
37,
36,
36,
36,
34,
35,
34,
34,
33,
33,
32,
31,
32,
31,
31,
29,
29,
29,
31,
27,
28,
29,
29,
26,
25,
26,
25,
24,
25,
24,
24,
23,
23,
21,
23,
21,
19,
21,
19,
18,
18,
18,
17,
18,
17,
17,
15,
15,
14,
16,
15,
14,
13,
13,
13,
12,
11,
12,
10,
11,
10,
10,
9,
8,
7,
6,
9,
6,
5,
5,
4,
4,
4,
4,
3,
3,
3,
2,
0,
1,
1,
-1,
0,
-1,
-1,
-1,
-3,
-1,
-4,
-3,
-4,
-4,
-6,
-6,
-7,
-7,
-7,
-8,
-8,
-9,
-11,
-9,
-11,
-11,
-12,
-11,
-13,
-12,
-14,
-13,
-14,
-16,
-15,
-16,
-15,
-16,
-16,
-17,
-17,
-19,
-19,
-19,
-19,
-21,
-20,
-22,
-21,
-23,
-23,
-24,
-24,
-23,
-24,
-24,
-25,
-26,
-27,
-27,
-27,
-27,
-28,
-29,
-29,
-29,
-31,
-29,
-30,
-30,
-31,
-32,
-32,
-33,
-33,
-32,
-33,
-35,
-35,
-35,
-35,
-36,
-37,
-36,
-37,
-36,
-38,
-38,
-39,
-39,
-40,
-40,
-39,
-40,
-41,
-41,
-42,
-41,
-43,
-42,
-43,
-44,
-46,
-45,
-45,
-45,
-47,
-47,
-45,
-47,
-46,
-47,
-48,
-48,
-49,
-50,
-48,
-49,
-49,
-51,
-51,
-52,
-52,
-51,
-53,
-52,
-53,
-53,
-54,
-53,
-53,
-53,
-55,
-54,
-55,
-55,
-56,
-57,
-55,
-56,
-57,
-57,
-57,
-57,
-59,
-59,
-59,
-60,
-59,
-59,
-59,
-60,
-60,
-60,
-61,
-61,
-60,
-60,
-62,
-62,
-63,
-62,
-63,
-62,
-62,
-64,
-63,
-63,
-64,
-64,
-63,
-63,
-64,
-65,
-64,
-65,
-65,
-65,
-64,
-64,
-65,
-65,
-67,
-65,
-65,
-65,
-65,
-66,
-66,
-65,
-65,
-67,
-66,
-66,
-67,
-68,
-67,
-67,
-67,
-67,
-67,
-67,
-69,
-68,
-68,
-67,
-69,
-69,
-69,
-70,
-70,
-69,
-68,
-68,
-68,
-68,
-70,
-68,
-69,
-70,
-69,
-69,
-70,
-68,
-69,
-68,
-70,
-67,
-70,
-69,
-69,
-68,
-68,
-70,
-68,
-68,
-70,
-70,
-69,
-68,
-70,
-68,
-69,
-70,
-69,
-68,
-68,
-70,
-68,
-67,
-70,
-70,
-68,
-69,
-69,
-68,
-66,
-67,
-67,
-67,
-67,
-67,
-67,
-67,
-67,
-68,
-67,
-67,
-66,
-67,
-66,
-66,
-65,
-66,
-67,
-66,
-65,
-64,
-66,
-65,
-65,
-65,
-65,
-64,
-63,
-64,
-64,
-64,
-63,
-63,
-62,
-63,
-62,
-62,
-63,
-61,
-61,
-61,
-61,
-62,
-60,
-61,
-60,
-59,
-60,
-60,
-59,
-59,
-57,
-58,
-57,
-56,
-57,
-57,
-57,
-57,
-56,
-58,
-56,
-57,
-55,
-56,
-55,
-56,
-55,
-55,
-53,
-55,
-54,
-52,
-52,
-52,
-51,
-52,
-52,
-50,
-51,
-49,
-49,
-51,
-49,
-49,
-49,
-48,
-48,
-47,
-48,
-47,
-46,
-47,
-46,
-47,
-46,
-43,
-43,
-45,
-46,
-44,
-43,
-44,
-43,
-42,
-42,
-41,
-41,
-40,
-40,
-41,
-41,
-39,
-39,
-38,
-39,
-39,
-38,
-36,
-35,
-36,
-35,
-34,
-35,
-33,
-34,
-32,
-32,
-32,
-32,
-32,
-31,
-32,
-30,
-29,
-28,
-28,
-28,
-28,
-27,
-28,
-27,
-28,
-25,
-25,
-25,
-24,
-23,
-24,
-23,
-23,
-24,
-22,
-23,
-21,
-20,
-19,
-19,
-17,
-19,
-17,
-18,
-16,
-17,
-16,
-16,
-15,
-14,
-13,
-14,
-14,
-13,
-12,
-11,
-12,
-11,
-10,
-10,
-9,
-9,
-8,
-8,
-7,
-7,
-6,
-6,
-5,
-3,
-5,
-4,
-3,
-3,
-3,
-1,
-3,
-1,
0,
0,
-1,
2,
1,
2,
2,
3,
4,
2,
4,
5,
5,
5,
7,
5,
7,
7,
8,
8,
9,
9,
9,
9,
11,
11,
12,
12,
13,
13,
14,
13,
14,
15,
15,
15,
16,
19,
16,
19,
18,
18,
19,
20,
20,
20,
21,
21,
23,
22,
23,
23,
24,
23,
24,
25,
27,
26,
25,
26,
27,
28,
26,
29,
29,
30,
29,
30,
31,
31,
31,
32,
32,
34,
33,
34,
33,
33,
34,
36,
36,
36,
37,
37,
36,
38,
38,
38,
38,
38,
39,
40,
40,
41,
41,
41,
41,
42,
41,
43,
42,
43,
44,
44,
45,
44,
45,
45,
47,
47,
48,
48,
47,
48,
47,
48,
48,
49,
49,
49,
50,
50,
50,
51,
51,
52,
52,
52,
53,
53,
53,
53,
53,
53,
54,
55,
53,
55,
55,
53,
56,
55,
56,
56,
55,
56,
58,
57,
57,
57,
58,
58,
58,
58,
58,
57,
58,
58,
60,
60,
61,
60,
61,
61,
60,
61,
61,
62,
63,
61,
61,
62,
63,
62,
63,
64,
63,
64,
64,
61,
63,
63,
63,
64,
64,
64,
64,
65,
65,
65,
65,
65,
64,
65,
65,
65,
66,
65,
65,
64,
65,
65,
65,
65,
67,
65,
65,
65,
66,
67,
65,
65,
66,
65,
67,
65,
65,
66,
65,
65,
68,
65,
66,
65,
66,
66,
66,
66,
67,
66,
67,
66,
67,
66,
67,
67,
66,
66,
65,
66,
66,
67,
65,
65,
66,
66,
65,
65,
64,
65,
65,
64,
64,
65,
64,
64,
66,
65,
65,
65,
64,
63,
63,
63,
64,
64,
63,
63,
64,
64,
61,
61,
63,
62,
61,
61,
61,
61,
62,
62,
60,
61,
61,
61,
59,
60,
60,
61,
59,
58,
60,
58,
57,
58,
57,
57,
57,
57,
55,
57,
56,
57,
56,
56,
55,
57,
55,
55,
54,
55,
54,
52,
55,
53,
54,
53,
52,
51,
52,
52,
51,
50,
50,
51,
49,
48,
49,
48,
49,
48,
48,
47,
47,
48,
46,
48,
45,
46,
45,
45,
45,
43,
44,
42,
42,
43,
43,
41,
41,
41,
42,
39,
39,
40,
39,
39,
39,
37,
39,
37,
37,
37,
35,
36,
36,
34,
34,
34,
34,
34,
33,
33,
33,
32,
31,
31,
31,
31,
30,
29,
29,
28,
28,
27,
27,
27,
26,
25,
27,
24,
24,
24,
22,
21,
23,
22,
23,
21,
20,
20,
20,
19,
19,
19,
19,
17,
17,
16,
16,
15,
16,
15,
15,
13,
13,
12,
12,
12,
12,
10,
10,
10,
8,
8,
9,
8,
8,
8,
8,
7,
5,
7,
6,
3,
4,
3,
3,
3,
3,
1,
2,
-1,
0,
-1,
-1,
-1,
-2,
-3,
-3,
-5,
-4,
-4,
-5,
-5,
-6,
-7,
-7,
-7,
-7,
-7,
-8,
-9,
-11,
-11,
-11,
-12,
-12,
-11,
-13,
-12,
-13,
-15,
-14,
-14,
-15,
-17,
-15,
-18,
-17,
-17,
-17,
-19,
-18,
-20,
-20,
-21,
-22,
-22,
-20,
-21,
-23,
-25,
-23,
-24,
-25,
-25,
-25,
-25,
-27,
-28,
-28,
-28,
-29,
-27,
-28,
-28,
-30,
-31,
-30,
-31,
-32,
-32,
-33,
-33,
-32,
-35,
-34,
-34,
-36,
-35,
-36,
-35,
-36,
-37,
-38,
-38,
-38,
-39,
-39,
-40,
-39,
-39,
-41,
-41,
-40,
-41,
-43,
-42,
-42,
-43,
-44,
-44,
-43,
-44,
-46,
-45,
-46,
-47,
-47,
-47,
-46,
-48,
-47,
-48,
-48,
-49,
-48,
-49,
-51,
-51,
-50,
-52,
-51,
-51,
-52,
-51,
-52,
-51,
-54,
-52,
-53,
-53,
-56,
-54,
-53,
-55,
-55,
-56,
-56,
-55,
-57,
-57,
-58,
-57,
-57,
-58,
-59,
-59,
-59,
-59,
-59,
-60,
-59,
-59,
-60,
-59,
-60,
-61,
-60,
-61,
-62,
-63,
-62,
-61,
-63,
-62,
-63,
-62,
-62,
-63,
-63,
-63,
-63,
-64,
-63,
-64,
-65,
-64,
-65,
-65,
-65,
-65,
-65,
-65,
-66,
-65,
-67,
-67,
-65,
-67,
-66,
-67,
-67,
-67,
-66,
-68,
-66,
-67,
-67,
-68,
-68,
-67,
-69,
-69,
-68,
-69,
-68,
-70,
-67,
-67,
-68,
-68,
-69,
-70,
-68,
-69,
-70,
-69,
-69,
-69,
-69,
-69,
-70,
-67,
-69,
-69,
-68,
-70,
-70,
-68,
-69,
-70,
-70,
-69,
-68,
-70,
-70,
-70,
-69,
-70,
-70,
-69,
-68,
-69,
-70,
-70,
-70,
-68,
-69,
-69,
-67,
-69,
-68,
-67,
-67,
-68,
-68,
-69,
-67,
-68,
-67,
-67,
-68,
-68,
-67,
-69,
-67,
-67,
-67,
-65,
-67,
-66,
-67,
-65,
-66,
-65,
-66,
-64,
-64,
-65,
-64,
-64,
-64,
-65,
-65,
-64,
-63,
-64,
-64,
-63,
-62,
-63,
-63,
-63,
-62,
-61,
-62,
-62,
-62,
-60,
-60,
-62,
-61,
-61,
-59,
-59,
-59,
-60,
-60,
-59,
-59,
-59,
-59,
-57,
-59,
-56,
-56,
-55,
-57,
-56,
-57,
-55,
-55,
-55,
-55,
-55,
-54,
-55,
-54,
-53,
-52,
-52,
-52,
-51,
-51,
-51,
-51,
-51,
-50,
-49,
-50,
-48,
-49,
-49,
-48,
-47,
-48,
-46,
-47,
-47,
-46,
-46,
-45,
-45,
-44,
-44,
-45,
-43,
-43,
-41,
-43,
-43,
-41,
-42,
-40,
-41,
-40,
-39,
-40,
-39,
-39,
-38,
-37,
-36,
-37,
-35,
-36,
-35,
-36,
-34,
-33,
-35,
-33,
-32,
-34,
-32,
-31,
-32,
-31,
-31,
-30,
-29,
-28,
-30,
-28,
-29,
-28,
-27,
-26,
-27,
-24,
-25,
-25,
-24,
-24,
-23,
-23,
-22,
-21,
-22,
-22,
-21,
-20,
-20,
-18,
-19,
-17,
-17,
-17,
-17,
-17,
-16,
-16,
-16,
-14,
-14,
-14,
-14,
-14,
-11,
-13,
-11,
-11,
-11,
-9,
-9,
-7,
-8,
-8,
-7,
-7,
-6,
-6,
-6,
-6,
-4,
-5,
-5,
-3,
-4,
-1,
0,
-1,
-1,
0,
0,
1,
1,
2,
3,
2,
3,
3,
3,
4,
5,
6,
5,
8,
7,
8,
6,
8,
8,
10,
12,
12,
10,
10,
11,
12,
13,
13,
15,
13,
15,
15,
16,
16,
17,
17,
17,
18,
18,
19,
17,
19,
18,
21,
21,
21,
21,
21,
23,
24,
23,
24,
24,
25,
24,
26,
27,
25,
29,
27,
29,
28,
29,
29,
29,
30,
31,
32,
32,
32,
32,
33,
32,
35,
34,
34,
36,
35,
36,
34,
36,
37,
39,
37,
39,
39,
39,
39,
39,
40,
40,
40,
41,
41,
42,
42,
43,
42,
41,
44,
44,
44,
45,
44,
45,
47,
46,
45,
47,
47,
48,
49,
50,
48,
49,
50,
48,
49,
50,
50,
50,
50,
51,
53,
52,
52,
52,
55,
52,
53,
53,
54,
55,
54,
55,
55,
55,
55,
55,
57,
56,
54,
56,
56,
57,
58,
57,
57,
58,
59,
57,
58,
59,
59,
59,
60,
61,
59,
60,
60,
61,
60,
61,
61,
61,
61,
61,
61,
63,
63,
62,
63,
63,
64,
63,
63,
63,
64,
64,
63,
63,
64,
64,
65,
64,
65,
64,
65,
65,
65,
64,
65,
65,
65,
65,
65,
65,
67,
64,
65,
65,
65,
65,
65,
66,
66,
66,
66,
67,
65,
66,
67,
67,
65,
66,
66,
67,
66,
67,
66,
65,
65,
65,
67,
65,
66,
66,
68,
66,
66,
65,
66,
65,
67,
65,
65,
67,
65,
65,
66,
66,
65,
65,
66,
65,
65,
66,
65,
65,
64,
65,
65,
63,
65,
64,
65,
65,
64,
63,
61,
64,
63,
64,
63,
61,
64,
63,
63,
63,
62,
63,
61,
61,
61,
61,
62,
60,
61,
64,
62,
61,
61,
59,
60,
60,
60,
58,
58,
58,
59,
59,
58,
58,
57,
57,
57,
57,
57,
57,
55,
57,
55,
54,
55,
55,
53,
55,
52,
53,
54,
54,
53,
53,
52,
52,
50,
51,
49,
51,
51,
50,
50,
50,
50,
49,
49,
49,
49,
47,
47,
47,
47,
46,
47,
45,
46,
45,
45,
44,
44,
44,
43,
42,
42,
41,
42,
40,
41,
40,
40,
41,
40,
40,
39,
38,
38,
38,
37,
37,
36,
36,
36,
36,
35,
34,
33,
34,
32,
32,
33,
32,
31,
30,
30,
31,
29,
29,
30,
29,
29,
26,
27,
28,
27,
25,
25,
25,
25,
23,
23,
23,
22,
22,
21,
21,
21,
20,
21,
20,
20,
18,
17,
17,
16,
18,
17,
17,
15,
17,
13,
13,
14,
13,
13,
13,
11,
11,
11,
9,
9,
9,
9,
8,
7,
8,
7,
8,
6,
7,
5,
4,
4,
4,
3,
2,
2,
2,
1,
1,
0,
0,
1,
-1,
-3,
-1,
-1,
-3,
-3,
-4,
-5,
-4,
-6,
-6,
-6,
-8,
-9,
-8,
-8,
-8,
-10,
-9,
-10,
-12,
-12,
-12,
-13,
-13,
-14,
-15,
-14,
-14,
-15,
-16,
-16,
-16,
-16,
-18,
-17,
-19,
-20,
-19,
-20,
-20,
-21,
-21,
-21,
-23,
-23,
-23,
-23,
-24,
-23,
-24,
-25,
-25,
-25,
-27,
-26,
-28,
-27,
-28,
-29,
-30,
-30,
-29,
-32,
-30,
-30,
-31,
-31,
-34,
-33,
-33,
-35,
-36,
-35,
-35,
-37,
-35,
-36,
-38,
-37,
-39,
-39,
-39,
-39,
-38,
-40,
-40,
-40,
-40,
-40,
-41,
-42,
-41,
-42,
-43,
-44,
-43,
-44,
-43,
-46,
-45,
-45,
-47,
-47,
-48,
-47,
-47,
-48,
-49,
-47,
-48,
-49,
-49,
-49,
-50,
-49,
-51,
-50,
-52,
-52,
-52,
-52,
-54,
-53,
-54,
-55,
-54,
-53,
-54,
-55,
-53,
-56,
-56,
-56,
-57,
-55,
-57,
-56,
-57,
-57,
-58,
-57,
-59,
-59,
-58,
-57,
-60,
-60,
-60,
-60,
-62,
-60,
-60,
-62,
-61,
-61,
-61,
-62,
-61,
-62,
-60,
-62,
-62,
-63,
-64,
-63,
-63,
-64,
-63,
-63,
-63,
-64,
-65,
-64,
-64,
-66,
-65,
-67,
-65,
-66,
-66,
-65,
-67,
-66,
-65,
-67,
-66,
-67,
-68,
-67,
-67,
-67,
-69,
-68,
-67,
-68,
-68,
-67,
-67,
-69,
-67,
-69,
-69,
-68,
-68,
-69,
-71,
-70,
-68,
-68,
-69,
-70,
-68,
-68,
-69,
-70,
-70,
-69,
-68,
-70,
-68,
-71,
-69,
-68,
-70,
-69,
-70,
-70,
-69,
-70,
-70,
-70,
-70,
-69,
-69,
-70,
-68,
-69,
-70,
-68,
-69,
-70,
-69,
-68,
-68,
-67,
-67,
-68,
-69,
-67,
-69,
-68,
-67,
-68,
-67,
-67,
-67,
-68,
-67,
-67,
-68,
-68,
-67,
-65,
-67,
-67,
-66,
-67,
-67,
-66,
-66,
-63,
-66,
-65,
-65,
-65,
-64,
-65,
-63,
-64,
-64,
-65,
-64,
-63,
-64,
-63,
-63,
-63,
-63,
-63,
-63,
-63,
-60,
-61,
-61,
-61,
-60,
-60,
-60,
-58,
-61,
-59,
-59,
-59,
-59,
-59,
-59,
-59,
-59,
-59,
-57,
-57,
-56,
-57,
-56,
-56,
-55,
-55,
-56,
-55,
-54,
-55,
-52,
-55,
-53,
-53,
-51,
-52,
-52,
-51,
-51,
-51,
-51,
-51,
-50,
-49,
-49,
-49,
-49,
-49,
-48,
-48,
-47,
-47,
-47,
-47,
-47,
-47,
-46,
-44,
-45,
-45,
-43,
-43,
-43,
-42,
-43,
-43,
-41,
-41,
-42,
-41,
-41,
-40,
-39,
-40,
-39,
-38,
-38,
-38,
-37,
-36,
-37,
-35,
-35,
-35,
-35,
-33,
-33,
-32,
-32,
-31,
-31,
-32,
-31,
-31,
-29,
-30,
-29,
-28,
-28,
-28,
-28,
-26,
-25,
-26,
-25,
-25,
-25,
-26,
-23,
-24,
-24,
-22,
-23,
-21,
-21,
-21,
-20,
-20,
-19,
-19,
-18,
-17,
-19,
-16,
-17,
-15,
-16,
-16,
-14,
-14,
-13,
-12,
-13,
-12,
-11,
-12,
-11,
-11,
-9,
-9,
-9,
-8,
-6,
-6,
-7,
-6,
-6,
-7,
-5,
-6,
-3,
-4,
-4,
-3,
-1,
-3,
0,
0,
0,
1,
0,
1,
1,
1,
2,
4,
3,
4,
4,
6,
6,
5,
7,
7,
7,
8,
7,
8,
9,
9,
10,
10,
13,
12,
12,
13,
13,
14,
15,
15,
15,
15,
16,
17,
17,
17,
19,
18,
19,
20,
21,
20,
20,
21,
21,
23,
21,
21,
23,
23,
25,
24,
27,
25,
25,
25,
28,
28,
27,
29,
29,
30,
29,
31,
31,
31,
31,
33,
33,
33,
33,
33,
34,
33,
34,
35,
34,
36,
36,
36,
37,
37,
37,
38,
39,
39,
39,
39,
39,
40,
41,
41,
42,
42,
43,
43,
42,
42,
43,
43,
44,
45,
46,
45,
46,
47,
46,
48,
48,
48,
48,
47,
49,
49,
48,
49,
50,
50,
50,
51,
51,
49,
52,
52,
52,
52,
52,
52,
54,
54,
55,
53,
53,
55,
56,
55,
56,
54,
57,
57,
56,
57,
57,
57,
56,
57,
57,
59,
57,
57,
58,
58,
58,
60,
59,
60,
59,
60,
60,
61,
61,
61,
61,
61,
61,
63,
62,
62,
62,
63,
63,
63,
63,
63,
63,
61,
64,
64,
64,
63,
64,
64,
64,
64,
64,
64,
66,
63,
65,
65,
65,
65,
65,
65,
65,
66,
65,
65,
65,
65,
65,
65,
65,
65,
65,
66,
67,
66,
67,
66,
65,
66,
66,
67,
67,
66,
66,
66,
67,
66,
66,
65,
68,
67,
65,
66,
65,
66,
65,
65,
65,
65,
66,
67,
67,
65,
67,
66,
65,
65,
