P2/datos/A0018CH1.CSV

Memory Length,4000,
Trigger Level,1.920E+00,
Source,CH1,
Probe,1X,
Vertical Units,V,
Vertical Scale,2.000E-01,
Vertical Position,-8.000E-03,
Horizontal Units,s,
Horizontal Scale,5.000E-02,
Horizontal Position,0.000E+00,
Horizontal Mode,Roll Mode,
Waveform Last Dot Address,3930,
Sampling Period,2.000E-04,
Firmware,V1.07,
Time, ,
Mode,Fast,
Waveform Data,
16,
15,
13,
14,
13,
14,
13,
13,
10,
12,
12,
10,
10,
11,
8,
11,
8,
7,
11,
9,
7,
8,
4,
6,
7,
5,
5,
4,
3,
5,
4,
1,
3,
1,
2,
1,
0,
1,
1,
-1,
1,
-1,
-1,
-3,
-2,
-3,
-2,
-4,
-5,
-3,
-5,
-4,
-6,
-6,
-6,
-7,
-6,
-7,
-8,
-7,
-7,
-9,
-10,
-8,
-9,
-11,
-10,
-11,
-11,
-11,
-12,
-12,
-13,
-13,
-13,
-15,
-15,
-15,
-15,
-15,
-16,
-16,
-17,
-16,
-17,
-17,
-19,
-19,
-19,
-19,
-20,
-21,
-20,
-21,
-22,
-22,
-22,
-23,
-22,
-23,
-21,
-24,
-25,
-24,
-24,
-25,
-25,
-27,
-27,
-28,
-28,
-27,
-28,
-29,
-28,
-29,
-28,
-30,
-29,
-31,
-29,
-31,
-31,
-31,
-33,
-33,
-33,
-33,
-35,
-33,
-36,
-33,
-34,
-35,
-35,
-35,
-38,
-37,
-39,
-38,
-36,
-39,
-38,
-39,
-39,
-40,
-39,
-41,
-41,
-42,
-40,
-41,
-41,
-42,
-43,
-43,
-43,
-44,
-44,
-45,
-43,
-45,
-47,
-46,
-45,
-47,
-47,
-47,
-48,
-48,
-48,
-48,
-49,
-48,
-52,
-49,
-51,
-51,
-51,
-49,
-52,
-49,
-49,
-52,
-51,
-53,
-52,
-52,
-52,
-55,
-55,
-53,
-55,
-54,
-56,
-55,
-55,
-55,
-57,
-56,
-56,
-57,
-57,
-57,
-59,
-57,
-60,
-60,
-60,
-59,
-59,
-60,
-60,
-60,
-60,
-59,
-61,
-61,
-62,
-62,
-63,
-63,
-63,
-63,
-62,
-64,
-64,
-63,
-63,
-64,
-64,
-66,
-63,
-66,
-65,
-65,
-66,
-65,
-67,
-65,
-66,
-68,
-67,
-68,
-67,
-68,
-68,
-69,
-68,
-70,
-68,
-69,
-71,
-69,
-71,
-70,
-71,
-71,
-71,
-70,
-72,
-72,
-71,
-72,
-72,
-72,
-71,
-72,
-72,
-72,
-74,
-74,
-72,
-73,
-73,
-74,
-75,
-76,
-75,
-72,
-74,
-75,
-75,
-76,
-77,
-75,
-78,
-76,
-77,
-77,
-75,
-75,
-75,
-77,
-79,
-77,
-78,
-76,
-77,
-79,
-77,
-77,
-79,
-78,
-78,
-78,
-77,
-77,
-77,
-78,
-79,
-78,
-79,
-80,
-78,
-79,
-78,
-79,
-80,
-80,
-80,
-80,
-80,
-80,
-79,
-79,
-80,
-81,
-79,
-81,
-79,
-81,
-80,
-81,
-81,
-80,
-81,
-81,
-80,
-81,
-82,
-81,
-81,
-81,
-81,
-81,
-83,
-81,
-83,
-81,
-81,
-81,
-83,
-81,
-82,
-81,
-81,
-83,
-81,
-83,
-83,
-83,
-82,
-81,
-83,
-81,
-83,
-84,
-83,
-83,
-81,
-82,
-82,
-81,
-84,
-83,
-82,
-81,
-83,
-81,
-83,
-83,
-83,
-81,
-83,
-83,
-82,
-82,
-82,
-81,
-83,
-80,
-81,
-81,
-83,
-81,
-83,
-81,
-83,
-83,
-82,
-83,
-83,
-81,
-82,
-81,
-81,
-82,
-83,
-81,
-81,
-80,
-81,
-81,
-80,
-81,
-81,
-81,
-79,
-79,
-80,
-79,
-80,
-80,
-79,
-79,
-80,
-80,
-80,
-80,
-79,
-79,
-80,
-79,
-79,
-79,
-79,
-79,
-78,
-79,
-78,
-79,
-78,
-76,
-77,
-78,
-78,
-75,
-76,
-78,
-77,
-76,
-77,
-77,
-77,
-77,
-76,
-78,
-77,
-77,
-75,
-75,
-75,
-76,
-73,
-75,
-73,
-73,
-73,
-73,
-73,
-73,
-74,
-75,
-73,
-73,
-71,
-73,
-71,
-72,
-71,
-71,
-72,
-70,
-71,
-71,
-72,
-71,
-69,
-71,
-70,
-69,
-71,
-71,
-68,
-68,
-68,
-68,
-67,
-68,
-67,
-66,
-67,
-65,
-67,
-67,
-67,
-65,
-65,
-65,
-64,
-65,
-63,
-67,
-65,
-64,
-64,
-64,
-65,
-64,
-63,
-62,
-62,
-63,
-62,
-63,
-61,
-63,
-60,
-59,
-60,
-62,
-59,
-59,
-59,
-61,
-60,
-59,
-59,
-57,
-58,
-57,
-59,
-57,
-55,
-57,
-57,
-55,
-56,
-56,
-55,
-55,
-56,
-53,
-53,
-55,
-54,
-52,
-51,
-52,
-51,
-51,
-51,
-51,
-51,
-51,
-51,
-48,
-51,
-49,
-51,
-49,
-49,
-49,
-48,
-47,
-45,
-47,
-47,
-47,
-46,
-45,
-44,
-46,
-44,
-44,
-43,
-44,
-43,
-42,
-44,
-43,
-40,
-40,
-41,
-40,
-40,
-40,
-40,
-41,
-40,
-39,
-38,
-37,
-37,
-37,
-36,
-39,
-36,
-35,
-36,
-35,
-35,
-35,
-33,
-33,
-33,
-34,
-32,
-33,
-32,
-32,
-29,
-32,
-31,
-30,
-30,
-30,
-29,
-29,
-30,
-27,
-28,
-27,
-28,
-27,
-26,
-27,
-25,
-24,
-24,
-25,
-24,
-23,
-23,
-23,
-23,
-21,
-21,
-23,
-21,
-20,
-22,
-20,
-20,
-19,
-19,
-18,
-19,
-18,
-17,
-16,
-17,
-17,
-16,
-15,
-15,
-14,
-14,
-14,
-12,
-14,
-12,
-14,
-11,
-12,
-11,
-9,
-10,
-11,
-9,
-8,
-8,
-7,
-8,
-8,
-5,
-7,
-5,
-6,
-5,
-4,
-4,
-3,
-4,
-3,
-3,
-3,
-2,
-1,
-2,
-1,
-1,
-1,
0,
0,
-1,
1,
1,
3,
1,
3,
2,
2,
4,
2,
4,
3,
7,
5,
7,
5,
7,
7,
7,
8,
7,
8,
9,
10,
10,
11,
11,
10,
10,
11,
12,
14,
13,
14,
14,
13,
15,
14,
15,
15,
17,
17,
17,
17,
17,
17,
19,
18,
20,
19,
21,
19,
19,
20,
22,
21,
21,
21,
23,
23,
21,
24,
25,
25,
25,
25,
27,
25,
27,
26,
26,
29,
29,
29,
29,
29,
28,
31,
30,
31,
32,
29,
31,
31,
32,
32,
32,
33,
32,
33,
34,
35,
36,
34,
35,
36,
38,
36,
37,
39,
39,
37,
39,
40,
39,
39,
40,
41,
40,
41,
41,
42,
43,
43,
42,
42,
44,
44,
43,
44,
44,
46,
45,
45,
45,
47,
47,
47,
48,
47,
48,
48,
49,
49,
50,
49,
49,
49,
49,
52,
51,
50,
50,
51,
50,
52,
53,
54,
53,
52,
52,
53,
55,
55,
55,
55,
55,
56,
55,
57,
55,
57,
56,
56,
57,
57,
57,
56,
58,
57,
58,
58,
60,
59,
61,
60,
61,
58,
61,
61,
61,
61,
61,
63,
62,
63,
64,
64,
63,
64,
65,
63,
64,
65,
64,
64,
64,
65,
66,
65,
67,
67,
65,
68,
65,
68,
67,
66,
66,
68,
67,
68,
69,
69,
68,
71,
69,
68,
69,
69,
69,
71,
71,
71,
71,
71,
69,
71,
71,
73,
71,
72,
72,
72,
72,
71,
72,
73,
73,
75,
74,
73,
73,
73,
73,
73,
75,
76,
74,
75,
74,
73,
73,
76,
73,
73,
75,
75,
74,
76,
75,
77,
77,
77,
76,
77,
77,
75,
77,
77,
77,
76,
77,
77,
77,
78,
77,
79,
79,
77,
77,
76,
79,
78,
76,
79,
79,
76,
78,
79,
79,
77,
79,
79,
80,
80,
80,
79,
79,
78,
79,
80,
79,
79,
78,
79,
79,
80,
79,
78,
79,
79,
80,
79,
80,
79,
81,
79,
79,
80,
80,
79,
79,
79,
79,
80,
79,
79,
80,
79,
79,
81,
79,
80,
78,
79,
79,
80,
78,
79,
80,
80,
80,
79,
80,
79,
79,
77,
79,
80,
80,
80,
79,
77,
79,
79,
77,
79,
78,
79,
77,
78,
77,
77,
79,
77,
77,
77,
77,
79,
78,
78,
77,
78,
77,
77,
77,
77,
77,
78,
77,
77,
76,
77,
76,
76,
76,
75,
75,
75,
74,
76,
75,
76,
75,
75,
74,
73,
74,
74,
73,
73,
74,
72,
73,
72,
73,
73,
72,
72,
72,
72,
73,
73,
72,
72,
72,
71,
71,
70,
71,
70,
69,
71,
70,
70,
69,
70,
69,
69,
69,
68,
68,
70,
68,
69,
68,
69,
69,
68,
68,
66,
68,
67,
65,
65,
68,
65,
64,
65,
67,
64,
66,
64,
63,
64,
64,
64,
63,
64,
64,
63,
63,
62,
61,
61,
62,
61,
61,
61,
60,
61,
60,
58,
59,
58,
58,
60,
59,
58,
58,
56,
56,
57,
56,
56,
56,
57,
55,
55,
55,
55,
55,
56,
53,
53,
55,
53,
51,
52,
52,
52,
53,
51,
52,
52,
50,
50,
51,
50,
49,
49,
49,
50,
48,
48,
49,
47,
47,
48,
47,
47,
45,
46,
47,
45,
43,
45,
43,
44,
44,
44,
42,
41,
43,
42,
40,
41,
40,
40,
39,
39,
39,
39,
38,
39,
37,
39,
37,
37,
37,
37,
37,
36,
34,
36,
34,
33,
34,
34,
34,
33,
32,
32,
32,
32,
31,
31,
31,
29,
31,
29,
29,
29,
29,
26,
28,
28,
26,
28,
28,
24,
26,
25,
25,
24,
24,
25,
23,
23,
22,
21,
23,
20,
20,
20,
20,
19,
19,
18,
19,
18,
17,
16,
18,
16,
17,
15,
17,
16,
16,
14,
15,
14,
13,
13,
13,
13,
12,
12,
12,
11,
10,
11,
9,
8,
9,
7,
8,
7,
8,
8,
5,
7,
5,
5,
4,
5,
3,
3,
4,
2,
3,
2,
3,
2,
1,
1,
-1,
1,
0,
0,
-3,
-1,
-1,
-2,
-3,
-3,
-4,
-4,
-3,
-4,
-5,
-6,
-7,
-6,
-7,
-8,
-7,
-7,
-11,
-8,
-10,
-10,
-11,
-11,
-11,
-10,
-12,
-12,
-14,
-12,
-14,
-13,
-14,
-13,
-13,
-15,
-16,
-15,
-15,
-17,
-17,
-17,
-17,
-17,
-17,
-18,
-17,
-19,
-20,
-20,
-19,
-21,
-23,
-22,
-23,
-23,
-24,
-24,
-24,
-24,
-24,
-24,
-24,
-25,
-27,
-27,
-27,
-27,
-26,
-26,
-28,
-27,
-29,
-30,
-29,
-30,
-30,
-30,
-31,
-30,
-33,
-32,
-31,
-34,
-33,
-33,
-33,
-35,
-36,
-36,
-35,
-36,
-34,
-36,
-35,
-38,
-38,
-38,
-39,
-38,
-39,
-39,
-40,
-40,
-40,
-41,
-43,
-41,
-41,
-42,
-43,
-43,
-43,
-41,
-43,
-43,
-44,
-44,
-44,
-47,
-46,
-46,
-46,
-47,
-47,
-47,
-47,
-47,
-48,
-48,
-48,
-48,
-49,
-49,
-51,
-50,
-51,
-51,
-51,
-51,
-49,
-53,
-52,
-52,
-53,
-52,
-54,
-53,
-52,
-54,
-55,
-55,
-53,
-55,
-56,
-55,
-56,
-57,
-58,
-56,
-57,
-56,
-57,
-57,
-59,
-59,
-60,
-60,
-60,
-60,
-61,
-60,
-61,
-62,
-62,
-61,
-62,
-62,
-62,
-63,
-63,
-61,
-63,
-64,
-64,
-63,
-64,
-65,
-64,
-64,
-64,
-64,
-64,
-67,
-65,
-67,
-65,
-65,
-65,
-68,
-68,
-68,
-66,
-68,
-67,
-67,
-67,
-69,
-70,
-70,
-71,
-70,
-71,
-70,
-71,
-71,
-72,
-72,
-72,
-72,
-70,
-72,
-72,
-71,
-72,
-73,
-72,
-72,
-73,
-72,
-72,
-75,
-73,
-72,
-75,
-75,
-75,
-76,
-75,
-76,
-75,
-76,
-76,
-76,
-76,
-76,
-75,
-76,
-75,
-76,
-77,
-77,
-77,
-78,
-77,
-76,
-78,
-77,
-78,
-78,
-77,
-78,
-78,
-79,
-78,
-80,
-79,
-79,
-79,
-79,
-79,
-79,
-79,
-79,
-78,
-79,
-80,
-79,
-81,
-80,
-80,
-80,
-80,
-81,
-80,
-81,
-80,
-81,
-80,
-80,
-81,
-81,
-81,
-81,
-81,
-82,
-83,
-83,
-81,
-81,
-83,
-80,
-82,
-81,
-81,
-81,
-81,
-82,
-81,
-82,
-81,
-81,
-80,
-83,
-81,
-83,
-81,
-83,
-82,
-81,
-83,
-83,
-81,
-83,
-83,
-83,
-83,
-83,
-83,
-83,
-83,
-82,
-82,
-81,
-81,
-83,
-82,
-82,
-83,
-83,
-81,
-81,
-83,
-81,
-83,
-83,
-82,
-82,
-82,
-81,
-81,
-84,
-82,
-82,
-80,
-81,
-82,
-83,
-83,
-81,
-82,
-81,
-80,
-81,
-81,
-81,
-79,
-81,
-80,
-80,
-80,
-80,
-79,
-80,
-81,
-81,
-79,
-79,
-81,
-81,
-79,
-79,
-80,
-80,
-80,
-80,
-79,
-80,
-79,
-80,
-79,
-79,
-79,
-78,
-79,
-77,
-79,
-76,
-79,
-78,
-79,
-78,
-78,
-79,
-77,
-77,
-77,
-78,
-76,
-77,
-76,
-76,
-77,
-77,
-75,
-75,
-75,
-75,
-76,
-75,
-74,
-74,
-73,
-73,
-74,
-73,
-75,
-72,
-73,
-73,
-73,
-72,
-73,
-73,
-73,
-72,
-72,
-72,
-72,
-71,
-71,
-72,
-71,
-71,
-71,
-71,
-71,
-69,
-70,
-70,
-69,
-71,
-68,
-68,
-68,
-70,
-69,
-69,
-66,
-67,
-68,
-67,
-66,
-67,
-67,
-66,
-67,
-65,
-65,
-65,
-64,
-65,
-64,
-65,
-63,
-64,
-63,
-63,
-63,
-63,
-63,
-62,
-62,
-61,
-62,
-62,
-61,
-62,
-61,
-60,
-61,
-62,
-59,
-60,
-60,
-59,
-59,
-59,
-57,
-56,
-58,
-58,
-57,
-56,
-56,
-54,
-55,
-56,
-55,
-54,
-54,
-53,
-53,
-54,
-52,
-53,
-52,
-52,
-51,
-52,
-52,
-51,
-51,
-50,
-52,
-49,
-50,
-50,
-49,
-49,
-49,
-48,
-48,
-48,
-48,
-47,
-46,
-45,
-45,
-44,
-47,
-45,
-44,
-45,
-44,
-43,
-41,
-43,
-42,
-44,
-43,
-41,
-42,
-43,
-40,
-40,
-41,
-39,
-39,
-39,
-38,
-36,
-38,
-36,
-36,
-38,
-35,
-36,
-36,
-38,
-33,
-36,
-35,
-33,
-34,
-34,
-33,
-33,
-33,
-32,
-32,
-32,
-31,
-30,
-29,
-29,
-29,
-30,
-29,
-29,
-28,
-28,
-27,
-27,
-25,
-25,
-25,
-27,
-25,
-24,
-24,
-24,
-24,
-24,
-23,
-23,
-22,
-21,
-21,
-21,
-20,
-19,
-21,
-20,
-18,
-18,
-17,
-17,
-17,
-17,
-16,
-15,
-16,
-14,
-16,
-15,
-15,
-15,
-15,
-14,
-13,
-12,
-11,
-12,
-11,
-11,
-11,
-9,
-11,
-11,
-9,
-9,
-7,
-7,
-6,
-8,
-6,
-6,
-6,
-6,
-5,
-4,
-5,
-3,
-3,
-1,
-3,
-3,
-1,
-2,
-1,
-1,
0,
2,
2,
1,
1,
2,
2,
1,
3,
3,
5,
5,
5,
5,
5,
6,
5,
8,
7,
8,
7,
9,
8,
9,
9,
8,
9,
12,
11,
10,
10,
12,
13,
12,
13,
14,
15,
16,
15,
15,
14,
16,
16,
16,
16,
16,
18,
18,
17,
17,
21,
20,
20,
20,
21,
21,
20,
21,
21,
24,
23,
22,
24,
24,
25,
24,
25,
27,
26,
27,
26,
27,
27,
27,
28,
28,
29,
28,
29,
29,
30,
31,
31,
30,
31,
33,
33,
32,
33,
33,
35,
35,
33,
35,
34,
36,
36,
38,
37,
39,
37,
39,
37,
38,
37,
38,
39,
39,
39,
40,
39,
41,
40,
41,
41,
41,
43,
42,
44,
43,
44,
45,
45,
45,
44,
46,
45,
46,
47,
46,
47,
48,
47,
48,
49,
50,
49,
48,
49,
49,
49,
50,
52,
52,
51,
50,
52,
51,
53,
53,
53,
52,
55,
55,
53,
53,
54,
55,
53,
55,
56,
55,
57,
55,
57,
57,
56,
57,
58,
57,
58,
58,
58,
57,
61,
61,
59,
59,
59,
59,
60,
60,
61,
64,
61,
63,
63,
63,
63,
61,
63,
63,
65,
65,
65,
65,
64,
65,
65,
64,
63,
66,
66,
66,
66,
66,
66,
66,
65,
68,
66,
68,
68,
67,
68,
68,
69,
69,
70,
69,
69,
71,
69,
69,
71,
71,
70,
70,
71,
72,
72,
73,
72,
72,
71,
72,
73,
73,
71,
72,
73,
73,
74,
73,
73,
72,
74,
75,
75,
73,
73,
73,
73,
76,
75,
74,
74,
75,
76,
75,
75,
74,
76,
75,
74,
76,
75,
77,
76,
76,
77,
78,
77,
77,
77,
77,
78,
77,
78,
76,
77,
78,
77,
77,
77,
78,
79,
77,
79,
78,
79,
78,
80,
79,
78,
78,
79,
80,
79,
79,
77,
79,
79,
79,
78,
79,
78,
80,
79,
79,
79,
79,
81,
79,
79,
79,
79,
80,
79,
80,
80,
79,
80,
80,
78,
79,
81,
80,
79,
80,
78,
80,
80,
80,
80,
79,
80,
79,
80,
79,
81,
80,
79,
79,
79,
79,
79,
79,
79,
77,
79,
80,
81,
80,
78,
79,
78,
80,
78,
78,
81,
77,
79,
79,
77,
77,
79,
79,
79,
77,
79,
78,
77,
77,
77,
77,
77,
78,
77,
77,
76,
77,
76,
76,
77,
75,
75,
74,
76,
76,
77,
76,
73,
75,
75,
75,
76,
75,
75,
76,
74,
76,
74,
73,
76,
74,
72,
74,
73,
73,
73,
72,
72,
71,
72,
72,
72,
72,
72,
71,
70,
71,
71,
71,
72,
69,
71,
69,
71,
71,
70,
69,
69,
68,
69,
69,
69,
69,
68,
67,
67,
67,
65,
68,
68,
67,
67,
65,
67,
65,
65,
64,
65,
65,
65,
64,
64,
66,
64,
64,
63,
64,
64,
61,
62,
62,
61,
63,
60,
61,
59,
61,
60,
61,
61,
60,
59,
58,
60,
57,
60,
58,
58,
57,
57,
57,
57,
57,
57,
55,
55,
55,
55,
55,
55,
55,
55,
54,
54,
54,
53,
52,
51,
51,
52,
51,
50,
53,
51,
51,
50,
49,
50,
49,
49,
49,
49,
49,
50,
45,
46,
48,
47,
46,
47,
45,
45,
45,
44,
45,
45,
44,
44,
42,
43,
43,
41,
42,
41,
40,
41,
40,
40,
39,
40,
40,
39,
37,
39,
37,
37,
36,
38,
37,
36,
34,
35,
34,
35,
33,
35,
33,
35,
33,
32,
33,
32,
32,
31,
31,
32,
32,
29,
30,
29,
29,
27,
28,
29,
26,
27,
27,
28,
25,
25,
26,
25,
25,
25,
23,
24,
21,
24,
21,
22,
20,
21,
21,
19,
19,
19,
18,
17,
19,
19,
17,
16,
17,
16,
16,
16,
16,
15,
15,
15,
13,
13,
13,
12,
13,
11,
10,
11,
9,
9,
9,
7,
9,
8,
7,
8,
7,
7,
7,
5,
5,
6,
5,
3,
3,
4,
4,
5,
3,
3,
1,
2,
1,
1,
0,
2,
0,
1,
0,
0,
-1,
-3,
-3,
-1,
-4,
-3,
-5,
-6,
-4,
-5,
-7,
-7,
-6,
-8,
-7,
-7,
-8,
-7,
-9,
-11,
-11,
-10,
-10,
-11,
-11,
-13,
-12,
-12,
-12,
-14,
-13,
-14,
-15,
-16,
-15,
-16,
-17,
-17,
-17,
-18,
-16,
-17,
-17,
-19,
-19,
-19,
-21,
-19,
-19,
-20,
-20,
-20,
-21,
-22,
-23,
-23,
-25,
-24,
-23,
-25,
-27,
-27,
-25,
-26,
-25,
-27,
-27,
-26,
-28,
-28,
-28,
-28,
-30,
-30,
-31,
-32,
-31,
-31,
-31,
-32,
-32,
-31,
-32,
-33,
-33,
-33,
-34,
-35,
-35,
-34,
-35,
-35,
-38,
-35,
-37,
-38,
-38,
-38,
-39,
-38,
-39,
-39,
-40,
-41,
-40,
-40,
-41,
-42,
-43,
-41,
-43,
-43,
-44,
-44,
-44,
-43,
-46,
-44,
-45,
-44,
-45,
-46,
-47,
-47,
-46,
-49,
-48,
-47,
-49,
-49,
-49,
-49,
-51,
-49,
-50,
-50,
-51,
-51,
-51,
-50,
-52,
-51,
-52,
-52,
-52,
-54,
-53,
-54,
-54,
-55,
-56,
-56,
-56,
-56,
-56,
-56,
-57,
-56,
-57,
-56,
-57,
-59,
-57,
-59,
-58,
-59,
-59,
-60,
-60,
-60,
-60,
-60,
-62,
-62,
-62,
-61,
-61,
-63,
-63,
-63,
-63,
-63,
-63,
-65,
-64,
-63,
-65,
-65,
-65,
-63,
-64,
-65,
-65,
-66,
-66,
-67,
-67,
-66,
-67,
-68,
-69,
-67,
-67,
-67,
-68,
-69,
-69,
-70,
-69,
-71,
-71,
-70,
-69,
-71,
-72,
-71,
-71,
-72,
-73,
-72,
-72,
-73,
-72,
-73,
-73,
-74,
-73,
-72,
-73,
-74,
-73,
-75,
-74,
-73,
-74,
-75,
-75,
-75,
-74,
-75,
-76,
-73,
-76,
-76,
-76,
-75,
-77,
-75,
-77,
-76,
-77,
-76,
-76,
-78,
-78,
-79,
-77,
-78,
-78,
-78,
-78,
-79,
-79,
-79,
-78,
-78,
-79,
-79,
-79,
-79,
-79,
-79,
Null,
Null,
Null,
Null,
Null,
Null,
Null,
Null,
Null,
Null,
Null,
Null,
Null,
Null,
Null,
Null,
Null,
Null,
Null,
Null,
Null,
Null,
Null,
Null,
Null,
Null,
Null,
Null,
Null,
Null,
Null,
Null,
Null,
Null,
Null,
Null,
Null,
Null,
Null,
Null,
Null,
Null,
Null,
Null,
Null,
Null,
Null,
Null,
Null,
Null,
Null,
Null,
Null,
Null,
Null,
Null,
Null,
Null,
Null,
Null,
Null,
Null,
Null,
Null,
Null,
Null,
Null,
Null,
Null,
Null,
