P2/datos/A0022CH1.CSV

Memory Length,4000,
Trigger Level,1.920E+00,
Source,CH1,
Probe,1X,
Vertical Units,V,
Vertical Scale,5.000E-01,
Vertical Position,-2.000E-02,
Horizontal Units,s,
Horizontal Scale,2.500E-04,
Horizontal Position,0.000E+00,
Horizontal Mode,Main,
Sampling Period,1.000E-06,
Firmware,V1.07,
Time, ,
Mode,Fast,
Waveform Data,
-41,
-41,
7,
7,
7,
7,
7,
7,
7,
7,
8,
8,
8,
9,
8,
8,
9,
9,
9,
10,
9,
10,
11,
9,
10,
10,
12,
11,
12,
12,
11,
12,
12,
13,
13,
13,
13,
13,
13,
14,
14,
14,
14,
14,
15,
15,
15,
15,
16,
15,
16,
15,
17,
15,
16,
16,
17,
16,
17,
17,
17,
17,
17,
18,
18,
18,
18,
18,
18,
19,
19,
19,
20,
20,
20,
20,
20,
20,
20,
21,
21,
21,
21,
21,
22,
21,
21,
22,
22,
22,
23,
23,
22,
23,
24,
23,
24,
23,
23,
23,
23,
24,
25,
24,
24,
25,
25,
25,
26,
25,
24,
26,
26,
26,
27,
27,
26,
26,
28,
26,
27,
28,
27,
29,
28,
28,
29,
28,
28,
29,
29,
28,
29,
28,
29,
29,
30,
29,
31,
30,
30,
31,
31,
30,
31,
30,
31,
31,
32,
32,
32,
32,
32,
32,
32,
33,
31,
32,
32,
33,
32,
33,
33,
33,
33,
33,
33,
33,
33,
33,
33,
33,
34,
34,
35,
35,
34,
34,
35,
34,
34,
34,
34,
34,
35,
36,
36,
36,
37,
35,
35,
35,
36,
36,
36,
36,
36,
37,
37,
36,
37,
37,
36,
36,
36,
36,
37,
37,
37,
37,
38,
37,
37,
39,
38,
38,
39,
39,
38,
37,
39,
39,
37,
39,
39,
38,
38,
39,
39,
39,
39,
40,
39,
39,
40,
40,
40,
40,
39,
39,
40,
40,
40,
40,
40,
40,
40,
40,
40,
39,
39,
41,
40,
41,
40,
41,
40,
40,
40,
41,
41,
41,
40,
40,
41,
41,
41,
41,
41,
41,
41,
40,
41,
41,
41,
41,
41,
41,
41,
41,
41,
40,
41,
41,
41,
41,
41,
41,
41,
41,
41,
41,
41,
41,
41,
41,
41,
42,
42,
41,
41,
41,
41,
41,
41,
41,
41,
41,
41,
41,
41,
41,
41,
41,
41,
41,
41,
41,
42,
42,
41,
41,
41,
41,
41,
41,
41,
41,
41,
41,
41,
41,
41,
40,
41,
41,
40,
40,
41,
40,
40,
41,
41,
41,
41,
40,
40,
40,
40,
40,
40,
40,
40,
40,
40,
39,
39,
40,
40,
40,
40,
40,
40,
40,
40,
39,
38,
39,
39,
39,
39,
39,
40,
40,
39,
39,
39,
39,
39,
39,
39,
39,
39,
39,
38,
38,
37,
38,
38,
38,
37,
38,
38,
38,
37,
37,
37,
36,
37,
37,
37,
37,
37,
37,
36,
37,
37,
36,
36,
36,
36,
36,
36,
36,
36,
36,
36,
35,
35,
35,
35,
35,
35,
34,
34,
35,
34,
35,
34,
34,
35,
34,
33,
33,
34,
34,
34,
34,
33,
33,
33,
32,
33,
33,
33,
33,
33,
32,
32,
32,
32,
32,
32,
32,
32,
31,
31,
31,
31,
31,
30,
31,
29,
29,
31,
31,
30,
30,
29,
29,
29,
28,
29,
29,
29,
29,
29,
29,
28,
28,
28,
27,
27,
26,
28,
26,
27,
27,
26,
26,
27,
25,
25,
25,
25,
25,
25,
25,
25,
25,
24,
24,
24,
23,
24,
24,
24,
23,
23,
23,
22,
23,
23,
22,
22,
22,
22,
21,
23,
21,
21,
21,
20,
20,
20,
20,
20,
21,
20,
20,
19,
19,
19,
19,
18,
18,
18,
17,
18,
19,
17,
17,
18,
17,
17,
17,
17,
17,
16,
16,
17,
16,
15,
15,
15,
15,
15,
15,
15,
14,
15,
14,
13,
13,
13,
13,
12,
12,
13,
12,
12,
13,
12,
11,
12,
11,
11,
11,
10,
10,
10,
9,
10,
9,
9,
9,
9,
9,
9,
9,
9,
8,
8,
7,
8,
7,
7,
7,
7,
7,
7,
6,
6,
5,
6,
6,
5,
5,
5,
5,
5,
5,
4,
3,
3,
3,
3,
3,
3,
3,
2,
3,
2,
1,
1,
1,
1,
1,
1,
1,
1,
1,
0,
0,
0,
-1,
-1,
-1,
-1,
-1,
-1,
-2,
-2,
-3,
-2,
-3,
-3,
-3,
-3,
-3,
-4,
-4,
-4,
-4,
-4,
-5,
-5,
-5,
-6,
-6,
-6,
-5,
-6,
-6,
-7,
-7,
-7,
-8,
-7,
-8,
-8,
-8,
-9,
-8,
-9,
-9,
-9,
-9,
-9,
-9,
-9,
-11,
-10,
-11,
-11,
-11,
-11,
-12,
-11,
-12,
-11,
-12,
-12,
-12,
-12,
-13,
-14,
-13,
-14,
-14,
-13,
-14,
-14,
-15,
-15,
-16,
-16,
-16,
-16,
-16,
-16,
-16,
-16,
-17,
-17,
-17,
-17,
-17,
-18,
-17,
-19,
-19,
-17,
-19,
-19,
-20,
-19,
-19,
-20,
-20,
-19,
-19,
-20,
-21,
-21,
-21,
-22,
-21,
-21,
-22,
-22,
-22,
-22,
-23,
-23,
-23,
-23,
-23,
-23,
-23,
-24,
-24,
-24,
-24,
-25,
-25,
-25,
-25,
-25,
-25,
-25,
-25,
-26,
-25,
-25,
-26,
-27,
-27,
-27,
-27,
-27,
-28,
-28,
-29,
-28,
-28,
-28,
-30,
-29,
-29,
-29,
-29,
-30,
-30,
-31,
-30,
-31,
-30,
-30,
-31,
-30,
-30,
-31,
-31,
-32,
-33,
-32,
-31,
-33,
-32,
-31,
-32,
-32,
-33,
-33,
-33,
-33,
-35,
-33,
-34,
-34,
-35,
-34,
-35,
-35,
-35,
-35,
-36,
-35,
-37,
-36,
-35,
-36,
-37,
-36,
-36,
-36,
-38,
-38,
-37,
-38,
-38,
-38,
-37,
-38,
-39,
-38,
-39,
-39,
-39,
-39,
-39,
-38,
-39,
-39,
-39,
-39,
-39,
-39,
-40,
-40,
-40,
-40,
-40,
-39,
-40,
-40,
-41,
-41,
-42,
-41,
-41,
-41,
-41,
-41,
-41,
-41,
-42,
-43,
-42,
-43,
-43,
-43,
-43,
-43,
-42,
-43,
-43,
-43,
-43,
-44,
-44,
-44,
-44,
-44,
-44,
-43,
-44,
-44,
-45,
-45,
-45,
-45,
-45,
-45,
-46,
-45,
-45,
-45,
-46,
-46,
-46,
-46,
-47,
-46,
-45,
-47,
-46,
-47,
-47,
-47,
-47,
-47,
-47,
-47,
-47,
-47,
-47,
-47,
-47,
-48,
-48,
-48,
-48,
-47,
-48,
-48,
-48,
-48,
-48,
-48,
-48,
-48,
-49,
-48,
-48,
-49,
-49,
-48,
-49,
-48,
-49,
-49,
-50,
-49,
-49,
-49,
-49,
-48,
-49,
-49,
-49,
-49,
-49,
-49,
-50,
-51,
-51,
-50,
-49,
-49,
-50,
-49,
-50,
-51,
-51,
-50,
-51,
-50,
-51,
-51,
-51,
-51,
-51,
-51,
-51,
-51,
-51,
-51,
-51,
-51,
-50,
-51,
-50,
-50,
-51,
-52,
-51,
-51,
-51,
-51,
-51,
-51,
-51,
-51,
-51,
-51,
-52,
-51,
-51,
-51,
-51,
-49,
-51,
-51,
-52,
-51,
-51,
-51,
-51,
-51,
-52,
-51,
-51,
-51,
-51,
-51,
-51,
-52,
-51,
-51,
-51,
-51,
-51,
-51,
-51,
-51,
-52,
-52,
-51,
-51,
-51,
-51,
-50,
-51,
-51,
-51,
-52,
-51,
-51,
-50,
-51,
-50,
-51,
-51,
-51,
-51,
-51,
-51,
-49,
-51,
-51,
-50,
-50,
-49,
-51,
-50,
-49,
-50,
-50,
-50,
-50,
-50,
-51,
-50,
-49,
-50,
-49,
-49,
-49,
-49,
-49,
-49,
-49,
-49,
-49,
-49,
-50,
-49,
-49,
-49,
-49,
-48,
-48,
-49,
-48,
-48,
-49,
-48,
-48,
-47,
-48,
-48,
-48,
-48,
-48,
-48,
-47,
-47,
-48,
-47,
-47,
-47,
-47,
-47,
-47,
-47,
-47,
-47,
-47,
-47,
-46,
-47,
-46,
-47,
-46,
-46,
-45,
-46,
-46,
-46,
-47,
-46,
-45,
-46,
-45,
-45,
-46,
-45,
-44,
-45,
-45,
-45,
-44,
-44,
-44,
-44,
-44,
-45,
-44,
-44,
-44,
-43,
-43,
-43,
-43,
-43,
-43,
-43,
-43,
-43,
-43,
-43,
-41,
-43,
-43,
-41,
-41,
-42,
-41,
-42,
-41,
-41,
-41,
-41,
-40,
-40,
-40,
-40,
-41,
-41,
-41,
-40,
-39,
-39,
-40,
-39,
-40,
-39,
-39,
-39,
-38,
-38,
-38,
-39,
-37,
-38,
-39,
-38,
-38,
-39,
-38,
-37,
-37,
-36,
-36,
-38,
-37,
-36,
-36,
-37,
-35,
-36,
-35,
-35,
-35,
-35,
-35,
-35,
-35,
-34,
-34,
-34,
-33,
-35,
-33,
-34,
-33,
-33,
-33,
-33,
-31,
-32,
-31,
-32,
-32,
-33,
-31,
-32,
-31,
-31,
-31,
-31,
-29,
-30,
-31,
-30,
-30,
-30,
-30,
-30,
-29,
-28,
-29,
-30,
-29,
-28,
-28,
-28,
-27,
-28,
-27,
-27,
-27,
-27,
-27,
-26,
-26,
-26,
-27,
-26,
-25,
-26,
-26,
-25,
-24,
-25,
-24,
-24,
-25,
-24,
-24,
-24,
-24,
-23,
-23,
-22,
-22,
-23,
-23,
-23,
-22,
-21,
-22,
-22,
-20,
-21,
-21,
-20,
-21,
-20,
-20,
-20,
-20,
-19,
-19,
-19,
-19,
-19,
-19,
-19,
-17,
-19,
-17,
-17,
-17,
-17,
-17,
-17,
-17,
-16,
-15,
-16,
-15,
-15,
-15,
-15,
-15,
-15,
-15,
-15,
-15,
-15,
-14,
-14,
-13,
-12,
-14,
-13,
-12,
-13,
-12,
-12,
-11,
-12,
-12,
-11,
-11,
-11,
-11,
-10,
-10,
-9,
-10,
-9,
-11,
-9,
-9,
-8,
-9,
-9,
-9,
-8,
-8,
-7,
-7,
-7,
-7,
-7,
-7,
-7,
-7,
-6,
-6,
-5,
-5,
-4,
-4,
-4,
-4,
-4,
-3,
-3,
-4,
-3,
-3,
-3,
-3,
-2,
-1,
-1,
-1,
-1,
-1,
-1,
-1,
-1,
0,
0,
0,
0,
0,
0,
0,
1,
1,
1,
1,
2,
2,
3,
3,
3,
3,
2,
4,
4,
4,
4,
4,
3,
4,
4,
4,
4,
5,
5,
5,
7,
6,
7,
7,
7,
7,
7,
7,
7,
7,
8,
8,
9,
8,
8,
8,
8,
9,
9,
9,
11,
10,
11,
10,
10,
11,
10,
11,
12,
12,
12,
12,
12,
12,
12,
12,
12,
13,
13,
13,
13,
13,
15,
15,
15,
15,
14,
15,
15,
15,
15,
16,
16,
16,
16,
16,
16,
17,
17,
17,
17,
18,
17,
17,
17,
18,
18,
18,
19,
18,
18,
19,
19,
19,
18,
19,
20,
20,
20,
20,
21,
21,
21,
21,
21,
21,
21,
22,
21,
23,
21,
22,
22,
23,
23,
23,
23,
23,
23,
24,
24,
24,
25,
24,
24,
24,
25,
25,
25,
25,
25,
25,
26,
26,
25,
26,
26,
26,
27,
26,
28,
27,
26,
28,
28,
28,
28,
28,
28,
28,
28,
29,
29,
29,
30,
29,
30,
29,
29,
29,
31,
29,
30,
31,
30,
31,
31,
31,
31,
31,
31,
32,
32,
31,
32,
32,
32,
32,
32,
33,
32,
32,
33,
33,
33,
33,
33,
33,
33,
33,
33,
34,
34,
33,
34,
34,
34,
34,
35,
34,
34,
34,
34,
35,
34,
35,
36,
35,
35,
37,
36,
34,
36,
36,
36,
37,
36,
37,
36,
37,
37,
37,
37,
37,
38,
37,
37,
37,
37,
37,
38,
39,
38,
38,
39,
37,
39,
38,
37,
38,
39,
39,
37,
38,
38,
39,
39,
39,
39,
39,
39,
39,
39,
40,
40,
40,
40,
39,
39,
39,
39,
40,
40,
40,
40,
40,
40,
40,
40,
40,
40,
39,
40,
40,
41,
40,
41,
41,
41,
40,
40,
40,
41,
40,
40,
41,
41,
41,
41,
41,
41,
41,
41,
41,
41,
41,
42,
41,
41,
42,
41,
41,
41,
41,
41,
40,
41,
41,
42,
41,
42,
42,
41,
42,
41,
41,
41,
41,
41,
41,
41,
41,
41,
43,
42,
42,
41,
42,
41,
41,
41,
41,
41,
41,
41,
41,
41,
42,
41,
42,
41,
41,
41,
41,
41,
41,
41,
41,
40,
41,
41,
43,
41,
41,
41,
41,
41,
41,
41,
41,
41,
41,
41,
40,
41,
40,
41,
41,
41,
41,
40,
40,
40,
40,
39,
40,
40,
40,
41,
41,
40,
40,
40,
40,
39,
39,
39,
40,
40,
40,
40,
40,
40,
39,
39,
39,
39,
39,
39,
39,
39,
40,
40,
39,
39,
39,
38,
39,
39,
38,
38,
39,
37,
37,
38,
38,
37,
38,
37,
37,
37,
37,
37,
37,
37,
37,
37,
37,
37,
37,
36,
36,
37,
36,
36,
36,
36,
37,
36,
36,
35,
35,
35,
35,
35,
35,
35,
35,
34,
35,
33,
35,
34,
34,
34,
34,
34,
34,
33,
34,
33,
33,
33,
33,
33,
33,
33,
32,
32,
32,
32,
32,
31,
32,
31,
32,
32,
32,
32,
32,
31,
31,
31,
31,
30,
31,
31,
31,
30,
29,
29,
29,
30,
29,
29,
29,
29,
29,
28,
29,
28,
29,
28,
28,
28,
28,
27,
27,
26,
26,
26,
26,
26,
26,
25,
26,
26,
25,
25,
25,
25,
24,
25,
24,
25,
25,
24,
23,
23,
23,
24,
23,
23,
23,
23,
23,
23,
23,
22,
22,
22,
21,
21,
21,
21,
21,
21,
21,
21,
20,
20,
19,
19,
20,
18,
18,
20,
18,
18,
18,
19,
18,
18,
17,
17,
17,
17,
17,
17,
17,
17,
16,
17,
16,
17,
16,
15,
15,
15,
15,
15,
15,
15,
15,
14,
13,
14,
13,
13,
13,
13,
13,
13,
13,
12,
13,
11,
12,
12,
11,
10,
11,
11,
10,
11,
10,
9,
9,
9,
8,
9,
8,
8,
8,
8,
8,
8,
7,
8,
7,
7,
7,
7,
7,
7,
7,
6,
5,
5,
4,
5,
5,
5,
5,
5,
4,
4,
3,
4,
3,
4,
4,
3,
2,
1,
1,
1,
1,
2,
1,
1,
1,
1,
1,
0,
0,
0,
0,
1,
-1,
-1,
-1,
-1,
-2,
-2,
-3,
-1,
-3,
-1,
-3,
-3,
-4,
-4,
-3,
-4,
-4,
-4,
-4,
-4,
-5,
-5,
-5,
-6,
-6,
-5,
-5,
-6,
-7,
-7,
-7,
-8,
-9,
-7,
-7,
-8,
-9,
-8,
-9,
-9,
-9,
-9,
-10,
-10,
-11,
-11,
-11,
-11,
-11,
-10,
-11,
-11,
-12,
-12,
-12,
-12,
-13,
-13,
-12,
-13,
-13,
-13,
-13,
-14,
-14,
-15,
-15,
-15,
-15,
-15,
-16,
-15,
-15,
-15,
-16,
-16,
-16,
-16,
-17,
-17,
-17,
-17,
-17,
-17,
-17,
-18,
-19,
-19,
-19,
-19,
-19,
-20,
-19,
-20,
-21,
-20,
-20,
-21,
-20,
-20,
-21,
-21,
-22,
-22,
-23,
-23,
-22,
-22,
-22,
-23,
-23,
-24,
-24,
-24,
-24,
-24,
-24,
-24,
-25,
-24,
-25,
-25,
-25,
-25,
-26,
-25,
-26,
-26,
-27,
-27,
-27,
-27,
-27,
-26,
-27,
-28,
-27,
-28,
-28,
-28,
-28,
-28,
-29,
-29,
-29,
-29,
-30,
-30,
-30,
-30,
-30,
-31,
-31,
-32,
-31,
-31,
-31,
-31,
-31,
-31,
-32,
-32,
-32,
-33,
-33,
-32,
-33,
-33,
-33,
-33,
-33,
-33,
-33,
-34,
-34,
-35,
-35,
-35,
-35,
-35,
-35,
-35,
-36,
-35,
-36,
-37,
-36,
-37,
-37,
-37,
-37,
-37,
-37,
-38,
-38,
-37,
-38,
-38,
-38,
-39,
-39,
-38,
-38,
-38,
-39,
-39,
-39,
-39,
-39,
-40,
-40,
-40,
-39,
-40,
-39,
-39,
-39,
-40,
-40,
-40,
-41,
-40,
-41,
-41,
-41,
-40,
-41,
-41,
-41,
-41,
-43,
-42,
-43,
-43,
-42,
-41,
-43,
-41,
-43,
-43,
-44,
-44,
-44,
-44,
-43,
-44,
-44,
-44,
-44,
-44,
-44,
-44,
-45,
-44,
-44,
-45,
-45,
-44,
-46,
-44,
-44,
-45,
-45,
-45,
-45,
-47,
-45,
-45,
-46,
-46,
-46,
-46,
-46,
-46,
-47,
-47,
-47,
-47,
-47,
-47,
-47,
-47,
-47,
-47,
-47,
-47,
-48,
-48,
-48,
-48,
-48,
-47,
-47,
-47,
-48,
-48,
-49,
-49,
-49,
-49,
-49,
-48,
-48,
-48,
-48,
-49,
-49,
-49,
-49,
-49,
-49,
-49,
-48,
-49,
-49,
-49,
-48,
-49,
-49,
-49,
-49,
-49,
-49,
-50,
-49,
-51,
-50,
-49,
-50,
-50,
-50,
-51,
-50,
-51,
-51,
-50,
-50,
-49,
-49,
-49,
-50,
-51,
-51,
-51,
-51,
-51,
-50,
-50,
-51,
-50,
-50,
-50,
-51,
-51,
-51,
-50,
-51,
-51,
-51,
-50,
-51,
-51,
-51,
-51,
-51,
-51,
-51,
-51,
-51,
-51,
-51,
-51,
-51,
-51,
-51,
-51,
-51,
-51,
-51,
-51,
-51,
-51,
-51,
-51,
-51,
-51,
-51,
-51,
-51,
-51,
-51,
-51,
-50,
-51,
-51,
-51,
-51,
-51,
-51,
-51,
-51,
-51,
-51,
-51,
-51,
-51,
-51,
-50,
-51,
-51,
-49,
-50,
-51,
-51,
-51,
-50,
-49,
-49,
-50,
-50,
-51,
-51,
-50,
-51,
-49,
-50,
-50,
-49,
-49,
-49,
-49,
-50,
-49,
-49,
-51,
-50,
-49,
-49,
-49,
-49,
-49,
-49,
-48,
-48,
-48,
-48,
-48,
-49,
-48,
-49,
-48,
-49,
-48,
-48,
-48,
-49,
-48,
-47,
-48,
-48,
-47,
-48,
-48,
-47,
-47,
-47,
-47,
-48,
-47,
-47,
-47,
-47,
-47,
-47,
-46,
-47,
-46,
-47,
-47,
-45,
-46,
-47,
-47,
-47,
-46,
-46,
-45,
-45,
-45,
-44,
-45,
-46,
-46,
-45,
-44,
-46,
-45,
-44,
-45,
-44,
-43,
-43,
-43,
-43,
-43,
-43,
-44,
-44,
-43,
-43,
-43,
-43,
-43,
-43,
-43,
-42,
-41,
-43,
-41,
-41,
-42,
-41,
-41,
-41,
-41,
-41,
-41,
-41,
-41,
-41,
-41,
-41,
-40,
-39,
-40,
-40,
-40,
-39,
-40,
-39,
-39,
-40,
-39,
-38,
-39,
-38,
-38,
-38,
-38,
-37,
-38,
-38,
-39,
-38,
-37,
-37,
-37,
-36,
-37,
-36,
-36,
-37,
-36,
-36,
-36,
-36,
-35,
-35,
-35,
-35,
-35,
-34,
-36,
-35,
-34,
-33,
-35,
-33,
-33,
-33,
-33,
-32,
-33,
-33,
-32,
-32,
-32,
-32,
-31,
-32,
-32,
-31,
-31,
-32,
-31,
-31,
-31,
-30,
-30,
-30,
-30,
-31,
-29,
-30,
-30,
-29,
-29,
-29,
-28,
-28,
-29,
-27,
-27,
-27,
-27,
-28,
-27,
-27,
-27,
-27,
-26,
-27,
-26,
-25,
-25,
-25,
-25,
-25,
-25,
-25,
-25,
-25,
-24,
-24,
-23,
-23,
-23,
-23,
-23,
-23,
-23,
-23,
-23,
-21,
-22,
-22,
-21,
-22,
-21,
-21,
-20,
-20,
-20,
-20,
-20,
-19,
-20,
-20,
-19,
-20,
-19,
-19,
-19,
-18,
-17,
-17,
-17,
-17,
-17,
-17,
-16,
-17,
-17,
-16,
-17,
-16,
-15,
-15,
-15,
-15,
-15,
-15,
-14,
-14,
-14,
-14,
-14,
-14,
-14,
-13,
-13,
-13,
-13,
-12,
-12,
-11,
-12,
-12,
-12,
-11,
-11,
-11,
-11,
-10,
-11,
-10,
-12,
-9,
-9,
-9,
-9,
-8,
-9,
-8,
-8,
-8,
-7,
-7,
-7,
-7,
-7,
-6,
-7,
-7,
-7,
-5,
-6,
-5,
-5,
-5,
-5,
-4,
-5,
-4,
-4,
-3,
-4,
-3,
-3,
-3,
-3,
-2,
-3,
-1,
-3,
-1,
-1,
-1,
0,
0,
-1,
0,
0,
0,
0,
1,
1,
1,
1,
1,
1,
1,
1,
2,
3,
3,
3,
3,
3,
4,
4,
3,
4,
4,
5,
5,
4,
5,
5,
5,
5,
5,
5,
7,
7,
7,
7,
7,
7,
8,
7,
8,
8,
8,
8,
9,
8,
9,
9,
9,
9,
9,
9,
10,
11,
10,
12,
11,
11,
11,
10,
11,
12,
13,
13,
13,
13,
13,
13,
13,
13,
13,
13,
13,
15,
15,
15,
16,
15,
15,
15,
16,
16,
17,
17,
16,
17,
16,
17,
17,
17,
17,
18,
17,
17,
19,
18,
17,
18,
19,
19,
19,
19,
19,
19,
20,
20,
21,
20,
21,
21,
21,
21,
21,
21,
20,
21,
21,
22,
23,
23,
23,
22,
23,
23,
23,
23,
23,
24,
24,
24,
24,
24,
24,
24,
24,
25,
25,
24,
25,
25,
26,
26,
26,
25,
26,
26,
25,
27,
27,
26,
27,
27,
27,
26,
27,
28,
28,
29,
29,
28,
29,
29,
29,
30,
29,
29,
30,
30,
30,
31,
30,
30,
30,
29,
31,
31,
31,
32,
31,
31,
31,
32,
32,
32,
33,
32,
33,
32,
33,
33,
33,
33,
33,
33,
33,
33,
34,
33,
33,
33,
33,
34,
34,
35,
34,
35,
34,
35,
35,
34,
35,
35,
35,
36,
35,
35,
35,
36,
36,
36,
37,
36,
36,
36,
36,
37,
37,
37,
37,
36,
37,
37,
37,
37,
37,
37,
38,
37,
38,
38,
38,
37,
37,
38,
39,
37,
38,
38,
39,
38,
38,
38,
39,
39,
38,
39,
39,
39,
39,
39,
40,
39,
39,
39,
39,
40,
41,
40,
39,
40,
39,
39,
40,
40,
40,
40,
40,
40,
40,
40,
40,
39,
40,
40,
40,
41,
41,
41,
41,
41,
41,
41,
41,
41,
41,
41,
41,
41,
41,
41,
41,
41,
41,
41,
41,
41,
41,
41,
41,
41,
41,
41,
41,
41,
42,
41,
41,
41,
41,
41,
41,
41,
41,
41,
42,
42,
41,
41,
41,
41,
41,
42,
42,
43,
42,
43,
41,
41,
41,
42,
41,
42,
43,
42,
41,
41,
41,
41,
41,
41,
41,
41,
41,
41,
41,
41,
41,
41,
41,
41,
41,
41,
41,
41,
42,
41,
41,
41,
42,
41,
41,
40,
40,
41,
41,
41,
40,
41,
41,
41,
41,
41,
41,
40,
41,
40,
40,
40,
41,
41,
40,
40,
40,
40,
40,
40,
40,
40,
40,
39,
40,
40,
39,
39,
39,
39,
39,
39,
39,
40,
39,
39,
39,
39,
39,
38,
39,
39,
39,
39,
39,
38,
37,
37,
37,
38,
38,
39,
37,
38,
39,
37,
37,
37,
37,
37,
37,
37,
37,
37,
36,
36,
36,
36,
35,
36,
36,
36,
36,
37,
37,
34,
36,
35,
35,
35,
36,
35,
35,
35,
35,
35,
34,
35,
33,
34,
34,
34,
34,
34,
33,
33,
33,
33,
33,
33,
33,
33,
33,
33,
33,
32,
32,
32,
31,
31,
32,
32,
31,
32,
32,
31,
31,
31,
31,
31,
30,
31,
30,
31,
31,
30,
29,
29,
29,
29,
29,
29,
29,
28,
28,
28,
28,
27,
27,
28,
28,
27,
28,
26,
27,
26,
26,
25,
27,
26,
26,
25,
27,
25,
26,
25,
25,
24,
25,
25,
25,
24,
24,
24,
24,
23,
23,
23,
23,
23,
23,
23,
23,
22,
22,
22,
22,
21,
23,
20,
21,
21,
21,
21,
20,
20,
20,
20,
19,
20,
19,
18,
19,
19,
19,
18,
18,
18,
17,
18,
18,
17,
17,
17,
17,
17,
17,
16,
16,
16,
16,
16,
16,
15,
15,
15,
15,
14,
15,
15,
14,
13,
13,
13,
13,
13,
13,
12,
13,
12,
12,
11,
12,
11,
11,
11,
10,
11,
12,
10,
9,
9,
9,
9,
9,
9,
9,
9,
9,
7,
8,
8,
8,
7,
7,
7,
7,
7,
7,
5,
5,
5,
5,
5,
5,
5,
5,
5,
5,
3,
4,
3,
4,
3,
3,
2,
3,
3,
2,
2,
2,
1,
3,
1,
1,
1,
1,
1,
1,
0,
1,
0,
0,
0,
-1,
-1,
-1,
-2,
-2,
-2,
-2,
-3,
-2,
-3,
-3,
-3,
-3,
-3,
-4,
-5,
-5,
-5,
-4,
-5,
-4,
-4,
-6,
-6,
-6,
-7,
-7,
-6,
-6,
-7,
-7,
-7,
-7,
-7,
-9,
-9,
-9,
-8,
-8,
-8,
-9,
-9,
-9,
-10,
-9,
-11,
-10,
-10,
-11,
-11,
-11,
-12,
-12,
-11,
-12,
-12,
-12,
-12,
-14,
-14,
-14,
-14,
-15,
-15,
-15,
-14,
-15,
-15,
-15,
-15,
-15,
-15,
-15,
-16,
-16,
-16,
-16,
-16,
-17,
-16,
-17,
-18,
-17,
-17,
-18,
-19,
-18,
-19,
-19,
-19,
-19,
-19,
-19,
-20,
-20,
-20,
-20,
-20,
-20,
-21,
-21,
-21,
-20,
-21,
-22,
-23,
-23,
-23,
-23,
-23,
-23,
-23,
-23,
-24,
-24,
-24,
-24,
-24,
-24,
-25,
-25,
-25,
-24,
-25,
-25,
-25,
-27,
-26,
-27,
-27,
-27,
-27,
-27,
-27,
-28,
-28,
-28,
-28,
-28,
-28,
-27,
-28,
-29,
-29,
-29,
-29,
-30,
-30,
-31,
-30,
-30,
-31,
-31,
-31,
-31,
-31,
-32,
-31,
-31,
-31,
-32,
-31,
-32,
-32,
-32,
-32,
-33,
-33,
-33,
-33,
-33,
-33,
-33,
-33,
-33,
-33,
-34,
-35,
-35,
-35,
-35,
-35,
-35,
-35,
-35,
-36,
-36,
-37,
-36,
-36,
-37,
-37,
-37,
-37,
-38,
-37,
-37,
-38,
-37,
-39,
-39,
-38,
-38,
-38,
-38,
-38,
-39,
-39,
-39,
-39,
-40,
-39,
-40,
-40,
-39,
-40,
-40,
-40,
-40,
-41,
-40,
-41,
-41,
-41,
-41,
-41,
-41,
-41,
-41,
-41,
-41,
-41,
-41,
-42,
-42,
-43,
-43,
-43,
-42,
-43,
-43,
-43,
-43,
-43,
-43,
-43,
-44,
-44,
-43,
-44,
-44,
-44,
-44,
-45,
-44,
-44,
-44,
-44,
-44,
-45,
-46,
-46,
-45,
-46,
-45,
-45,
-46,
-45,
-46,
-46,
-47,
-47,
-47,
-47,
-47,
-47,
-47,
-47,
-47,
-47,
-47,
-47,
-47,
-47,
-47,
-47,
-47,
-47,
-47,
-48,
-48,
-48,
-48,
-48,
-48,
-47,
-49,
-47,
-48,
-49,
-49,
-49,
-48,
-48,
-48,
-48,
-48,
-49,
-49,
-49,
-49,
-49,
-49,
-49,
-49,
-49,
-48,
-49,
-50,
-49,
-49,
-49,
-49,
-49,
-49,
-50,
-49,
-51,
-51,
-51,
-51,
-50,
-49,
-50,
-50,
-50,
-51,
-50,
-51,
-51,
-50,
-50,
-51,
-50,
-50,
-51,
-50,
-51,
-51,
-51,
-50,
-51,
-49,
-50,
-51,
-51,
-51,
-51,
-51,
-49,
-49,
-51,
-51,
-51,
-51,
-51,
-51,
-51,
-51,
-51,
-51,
-51,
-51,
-51,
-51,
-51,
-51,
-51,
-51,
-51,
-51,
-51,
-51,
-51,
-51,
-51,
-49,
-50,
-50,
-51,
-50,
-51,
-51,
-51,
-51,
-51,
-49,
-51,
-51,
-51,
-51,
-51,
-51,
-51,
-51,
-50,
-49,
-50,
-50,
-50,
-50,
-51,
-49,
-49,
-49,
-50,
-50,
-51,
-50,
-50,
-51,
-50,
-49,
-49,
-49,
-50,
-49,
-50,
-49,
-50,
-49,
-49,
-49,
-49,
-49,
-49,
-49,
-49,
-49,
-48,
-49,
-48,
-48,
-48,
-49,
-48,
-49,
-48,
-48,
-48,
-48,
-48,
-48,
-48,
-48,
-48,
-48,
-48,
-47,
-47,
-48,
-48,
-47,
-48,
-47,
-47,
-47,
-47,
-47,
-47,
-47,
-47,
-46,
-47,
-46,
-45,
-46,
-46,
-45,
-46,
-45,
-46,
-46,
-46,
-46,
-46,
-46,
-46,
-46,
-45,
-46,
-45,
-44,
-44,
-44,
-44,
-44,
-44,
-44,
-44,
-44,
-44,
-43,
-43,
-43,
-44,
-43,
-43,
-43,
-43,
-43,
-43,
-41,
-42,
-43,
-42,
-42,
-43,
-42,
-41,
-42,
-41,
